{
  "data": {
    "type": "Spawn"
  },
  "textures": [
    {
      "name": "shopman.png"
    },
    {
      "name": "shopman2.png"
    },
    {
      "name": "shopman3.png"
    },
    {
      "name": "shopman4.png"
    },
    {
      "name": "shopman5.png"
    },
    {
      "name": "shoplady.png"
    },
    {
      "name": "shoplady2.png"
    },
    {
      "name": "shoplady3.png"
    },
    {
      "name": "shoplady4.png"
    },
    {
      "name": "shopsecondman.png"
    }
  ],
  "names": [
    {
      "name": "Charles"
    },
    {
      "name": "Eito"
    },
    {
      "name": "Mr. Benson"
    },
    {
      "name": "Mr. Wong"
    },
    {
      "name": "James"
    },
    {
      "name": "Digby"
    },
    {
      "name": "Janet"
    },
    {
      "name": "Sally"
    },
    {
      "name": "Suki"
    },
    {
      "name": "Mrs. Hammersmith"
    },
    {
      "name": "Mrs. Finnegan"
    },
    {
      "name": "Mr. Prendergast"
    },
    {
      "name": "Mrs. Finnegan"
    }
  ],
  "chat": [
    {
      "hello": "Welcome to my Flower Store. I hope you find something you like!",
      "goodbye": "See you next time."
    },
    {
      "hello": "Hello, welcome to the Flower Store. How may I help you?",
      "goodbye": "Thank you for shopping at the Flower Store. Have a nice day."
    },
    {
      "hello": "Hello there! Welcome to my Flower Store. I have only the best flowers for sale.",
      "goodbye": "Thank you for shopping at my store."
    },
    {
      "hello": "Welcome to my Flower Store. Nice day for shopping, isn't it?",
      "goodbye": "Come back soon, won't you?"
    },
    {
      "hello": "Hello there, welcome to the Flower Store! We have many specials today!",
      "goodbye": "Come see us again, won't you?"
    },
    {
      "hello": "Hey there, welcome to the Flower Store. Looking for anything special?",
      "goodbye": "Okay, see ya next time."
    },
    {
      "hello": "How are you? Welcome to our Flower Store! We've got some great medicines for your Pokémon.",
      "goodbye": "Ciao, my friend. Come back anytime."
    },
    {
      "hello": "Hello, check out our Flower Store! We have some useful Pokémon medicines today.",
      "goodbye": "Come back again soon, okay?"
    },
    {
      "hello": "Hi, looking for the best Flower Store? Well, you just found it!",
      "goodbye": "Leaving so soon? Well, make sure you come back even sooner!"
    },
    {
      "hello": "Hi, welcome to the Flower Store. Would you like any help?",
      "goodbye": "Bye then. Visit us again soon."
    },
    {
      "hello": "Hi, how are you? Welcome to the Flower Store. Just call out if you need any help.",
      "goodbye": "Nice to see you. Have a great day!"
    },
    {
      "hello": "Hello, may I help you find your medicines? We have some great bargains.",
      "goodbye": "Thank you for your custom. We look forward to serving you again."
    },
    {
      "hello": "Welcome to the Flower Store. Is there anything special you're looking for?",
      "goodbye": "Bye! Come and see us again soon!"
    },
    {
      "hello": "Welcome to our lovely store. I am sure the quality of our goods will please you.",
      "goodbye": "Delighted to have met you. Good day."
    },
    {
      "hello": "Hello, and welcome to the Flower Store. We have an exciting range of luxury goods.",
      "goodbye": "Thank you for shopping at the Flower Store."
    },
    {
      "hello": "Bienvenu! Our Flower Store has fine quality merchandise to offer you.",
      "goodbye": "It was indeed a privilege to do business with you."
    },
    {
      "hello": "Welcome to our fine Flower Store. Enjoy browsing our luxury range.",
      "goodbye": "Good day to you, and thank you for shopping at our store."
    },
    {
      "hello": "Hello, and welcome to the Flower Store. We have an exciting range of luxury goods.",
      "goodbye": "Thank you for shopping at the Flower Store."
    }
  ],
  "items": [
    {
      "name": "Minecraft_Dandelion",
      "multi": 1.0,
      "rarity": 1.0,
      "variation": false
    },
    {
      "name": "Minecraft_Poppy",
      "multi": 1.0,
      "rarity": 1.0,
      "variation": false
    },
    {
      "name": "Minecraft_Blue_Orchid",
      "multi": 1.0,
      "rarity": 1.0,
      "variation": false
    },
    {
      "name": "Minecraft_Allium",
      "multi": 1.0,
      "rarity": 1.0,
      "variation": false
    },
    {
      "name": "Minecraft_Azure_Bluet",
      "multi": 1.0,
      "rarity": 1.0,
      "variation": false
    },
    {
      "name": "Minecraft_Red_Tulip",
      "multi": 1.0,
      "rarity": 1.0,
      "variation": false
    },
    {
      "name": "Minecraft_Orange_Tulip",
      "multi": 1.0,
      "rarity": 1.0,
      "variation": false
    },
    {
      "name": "Minecraft_White_Tulip",
      "multi": 1.0,
      "rarity": 1.0,
      "variation": false
    },
    {
      "name": "Minecraft_Pink_Tulip",
      "multi": 1.0,
      "rarity": 1.0,
      "variation": false
    },
    {
      "name": "Minecraft_Oxeye_Daisy",
      "multi": 1.0,
      "rarity": 1.0,
      "variation": false
    },
    {
      "name": "Minecraft_Sunflower",
      "multi": 1.0,
      "rarity": 1.0,
      "variation": false
    },
    {
      "name": "BoP_Clover",
      "multi": 1.0,
      "rarity": 1.0,
      "variation": false
    },
    {
      "name": "BoP_Flowered_Lily_Pad",
      "multi": 1.0,
      "rarity": 1.0,
      "variation": false
    },
    {
      "name": "BoP_Swampflower",
      "multi": 1.0,
      "rarity": 1.0,
      "variation": false
    },
    {
      "name": "BoP_Deathbloom",
      "multi": 1.0,
      "rarity": 1.0,
      "variation": false
    },
    {
      "name": "BoP_Glowflower",
      "multi": 1.0,
      "rarity": 1.0,
      "variation": false
    },
    {
      "name": "BoP_Blue_Hydrangea",
      "multi": 1.0,
      "rarity": 1.0,
      "variation": false
    },
    {
      "name": "BoP_Orange_Cosmos",
      "multi": 1.0,
      "rarity": 1.0,
      "variation": false
    },
    {
      "name": "BoP_Pink_Dafodil",
      "multi": 1.0,
      "rarity": 1.0,
      "variation": false
    },
    {
      "name": "BoP_Wildflower",
      "multi": 1.0,
      "rarity": 1.0,
      "variation": false
    },
    {
      "name": "BoP_Violet",
      "multi": 1.0,
      "rarity": 1.0,
      "variation": false
    },
    {
      "name": "BoP_White_Anemone",
      "multi": 1.0,
      "rarity": 1.0,
      "variation": false
    },
    {
      "name": "BoP_Enderlotus",
      "multi": 1.0,
      "rarity": 1.0,
      "variation": false
    },
    {
      "name": "BoP_Bromeliad",
      "multi": 1.0,
      "rarity": 1.0,
      "variation": false
    },
    {
      "name": "BoP_Wilted_Lily",
      "multi": 1.0,
      "rarity": 1.0,
      "variation": false
    },
    {
      "name": "BoP_Pink_Hibiscus",
      "multi": 1.0,
      "rarity": 1.0,
      "variation": false
    },
    {
      "name": "BoP_Lily_of_the_Valley",
      "multi": 1.0,
      "rarity": 1.0,
      "variation": false
    },
    {
      "name": "BoP_Burning_Blossom",
      "multi": 1.0,
      "rarity": 1.0,
      "variation": false
    },
    {
      "name": "BoP_Lavender",
      "multi": 1.0,
      "rarity": 1.0,
      "variation": false
    },
    {
      "name": "BoP_Goldenrod",
      "multi": 1.0,
      "rarity": 1.0,
      "variation": false
    },
    {
      "name": "BoP_Bluebells",
      "multi": 1.0,
      "rarity": 1.0,
      "variation": false
    },
    {
      "name": "BoP_Miners_Delight",
      "multi": 1.0,
      "rarity": 1.0,
      "variation": false
    },
    {
      "name": "BoP_Icy_Iris",
      "multi": 1.0,
      "rarity": 1.0,
      "variation": false
    },
    {
      "name": "BoP_Rose",
      "multi": 1.0,
      "rarity": 1.0,
      "variation": false
    },
    {
      "name": "BoP_Flowering_Vines",
      "multi": 1.0,
      "rarity": 1.0,
      "variation": false
    },
    {
      "name": "BoP_Plain_Flower_Band",
      "multi": 1.0,
      "rarity": 1.0,
      "variation": false
    },
    {
      "name": "BoP_Lush_Flower_Band",
      "multi": 1.0,
      "rarity": 1.0,
      "variation": false
    },
    {
      "name": "BoP_Exotic_Flower_Band",
      "multi": 1.0,
      "rarity": 1.0,
      "variation": false
    },
    {
      "name": "BoP_Dull_Flower_Band",
      "multi": 1.0,
      "rarity": 1.0,
      "variation": false
    },
    {
      "name": "Minecraft_Lilac",
      "multi": 1.0,
      "rarity": 1.0,
      "variation": false
    },
    {
      "name": "Minecraft_Rose_Bush",
      "multi": 1.0,
      "rarity": 1.0,
      "variation": false
    },
    {
      "name": "BoP_Tree_Moss",
      "multi": 1.0,
      "rarity": 1.0,
      "variation": false
    },
    {
      "name": "BoP_Ivy",
      "multi": 1.0,
      "rarity": 1.0,
      "variation": false
    },
    {
      "name": "Minecraft_Peony",
      "multi": 1.0,
      "rarity": 1.0,
      "variation": false
    },
    {
      "name": "BoP_Glowshroom",
      "multi": 1.0,
      "rarity": 1.0,
      "variation": false
    },
    {
      "name": "BoP_Pink_Coral",
      "multi": 1.0,
      "rarity": 1.0,
      "variation": false
    },
    {
      "name": "BoP_Orange_Coral",
      "multi": 1.0,
      "rarity": 1.0,
      "variation": false
    },
    {
      "name": "BoP_Blue_Coral",
      "multi": 1.0,
      "rarity": 1.0,
      "variation": false
    },
    {
      "name": "BoP_Glowing_Coral",
      "multi": 1.0,
      "rarity": 1.0,
      "variation": false
    },
    {
      "name": "Minecraft_Lily_Pad",
      "multi": 1.0,
      "rarity": 1.0,
      "variation": false
    },
    {
      "name": "BoP_Medium_Lily_Pad",
      "multi": 1.0,
      "rarity": 1.0,
      "variation": false
    },
    {
      "name": "BoP_Small_Lily_Pad",
      "multi": 1.0,
      "rarity": 1.0,
      "variation": false
    },
    {
      "name": "BoP_Thorns",
      "multi": 1.0,
      "rarity": 1.0,
      "variation": false
    },
    {
      "name": "BoP_Shadow_Shroom",
      "multi": 1.0,
      "rarity": 1.0,
      "variation": false
    },
    {
      "name": "BoP_Poison_Ivy",
      "multi": 1.0,
      "rarity": 1.0,
      "variation": false
    }
  ]
}
