{
  "data": {
    "type": "Spawn"
  },
  "textures": [
    {
      "name": "shopman.png"
    },
    {
      "name": "shopman2.png"
    },
    {
      "name": "shopman3.png"
    },
    {
      "name": "shopman4.png"
    },
    {
      "name": "shopman5.png"
    },
    {
      "name": "shoplady.png"
    },
    {
      "name": "shoplady2.png"
    },
    {
      "name": "shoplady3.png"
    },
    {
      "name": "shoplady4.png"
    },
    {
      "name": "shopsecondman.png"
    }
  ],
  "names": [
    {
      "name": "Charles"
    },
    {
      "name": "Eito"
    },
    {
      "name": "Mr. Benson"
    },
    {
      "name": "Mr. Wong"
    },
    {
      "name": "James"
    },
    {
      "name": "Digby"
    },
    {
      "name": "Janet"
    },
    {
      "name": "Sally"
    },
    {
      "name": "Suki"
    },
    {
      "name": "Mrs. Hammersmith"
    },
    {
      "name": "Mrs. Finnegan"
    },
    {
      "name": "Mr. Prendergast"
    },
    {
      "name": "Mrs. Finnegan"
    }
  ],
  "chat": [
    {
      "hello": "Welcome to my Flying TM Shop. I hope you find something you like!",
      "goodbye": "See you next time."
    },
    {
      "hello": "Hello, welcome to the Flying TM Shop. How may I help you?",
      "goodbye": "Thank you for shopping at the Flying TM Shop. Have a nice day."
    },
    {
      "hello": "Hello there! Welcome to my Flying TM Shop. I have only the best Pokémon TMs for sale.",
      "goodbye": "Thank you for shopping at my store."
    },
    {
      "hello": "Welcome to my Flying TM Shop. Nice day for shopping, isn't it?",
      "goodbye": "Come back soon, won't you?"
    },
    {
      "hello": "Hello there, welcome to the Flying TM Shop! We have many specials today!",
      "goodbye": "Come see us again, won't you?"
    },
    {
      "hello": "Hey there, welcome to the Flying TM Shop. Looking for anything special?",
      "goodbye": "Okay, see ya next time."
    },
    {
      "hello": "How are you? Welcome to our Flying TM Shop! We've got some great TMs for your Pokémon.",
      "goodbye": "Ciao, my friend. Come back anytime."
    },
    {
      "hello": "Hello, check out our Flying TM Shop! We have some useful Pokémon TMs today.",
      "goodbye": "Come back again soon, okay?"
    },
    {
      "hello": "Hi, looking for the best Flying TM Shop? Well, you just found it!",
      "goodbye": "Leaving so soon? Well, make sure you come back even sooner!"
    },
    {
      "hello": "Hi, welcome to the Flying TM Shop. Would you like any help?",
      "goodbye": "Bye then. Visit us again soon."
    },
    {
      "hello": "Hi, how are you? Welcome to the Flying TM Shop. Just call out if you need any help.",
      "goodbye": "Nice to see you. Have a great day!"
    },
    {
      "hello": "Hello, may I help you find your Flying TMs? We have some great bargains.",
      "goodbye": "Thank you for your custom. We look forward to serving you again."
    },
    {
      "hello": "Welcome to the Flying TM Shop. Is there anything special you're looking for?",
      "goodbye": "Bye! Come and see us again soon!"
    },
    {
      "hello": "Welcome to our lovely store. I am sure the quality of our goods will please you.",
      "goodbye": "Delighted to have met you. Good day."
    },
    {
      "hello": "Hello, and welcome to the Flying TM Shop. We have an exciting range of luxury goods.",
      "goodbye": "Thank you for shopping at the Flying TM Shop."
    },
    {
      "hello": "Bienvenu! Our Flying TM Shop has fine quality merchandise to offer you.",
      "goodbye": "It was indeed a privilege to do business with you."
    },
    {
      "hello": "Welcome to our fine Flying TM Shop. Enjoy browsing our luxury range.",
      "goodbye": "Good day to you, and thank you for shopping at our store."
    },
    {
      "hello": "Hello, and welcome to the Flying TM Shop. We have an exciting range of luxury goods.",
      "goodbye": "Thank you for shopping at the Flying TM Shop."
    }
  ],
  "items": [
    {
      "name": "Pixelmon_TM_40_Aerial_Ace",
      "multi": 1.0,
      "rarity": 1.0,
      "variation": false
    },
    {
      "name": "Pixelmon_TM_58_Sky_Drop",
      "multi": 1.0,
      "rarity": 1.0,
      "variation": false
    },
    {
      "name": "Pixelmon_TM_62_Acrobatics",
      "multi": 1.0,
      "rarity": 1.0,
      "variation": false
    },
    {
      "name": "Pixelmon_TM_88_Pluck",
      "multi": 1.0,
      "rarity": 1.0,
      "variation": false
    },
    {
      "name": "Pixelmon_TM_123_Sky_Attack",
      "multi": 1.0,
      "rarity": 1.0,
      "variation": false
    },
    {
      "name": "Pixelmon_TM_155_Roost",
      "multi": 1.0,
      "rarity": 1.0,
      "variation": false
    }
  ]
}
