{
  "data": {
    "type": "Spawn"
  },
  "textures": [
    {
      "name": "shopman.png"
    },
    {
      "name": "shopman2.png"
    },
    {
      "name": "shopman3.png"
    },
    {
      "name": "shopman4.png"
    },
    {
      "name": "shopman5.png"
    },
    {
      "name": "shoplady.png"
    },
    {
      "name": "shoplady2.png"
    },
    {
      "name": "shoplady3.png"
    },
    {
      "name": "shoplady4.png"
    },
    {
      "name": "shopsecondman.png"
    }
  ],
  "names": [
    {
      "name": "Charles"
    },
    {
      "name": "Eito"
    },
    {
      "name": "Mr. Benson"
    },
    {
      "name": "Mr. Wong"
    },
    {
      "name": "James"
    },
    {
      "name": "Digby"
    },
    {
      "name": "Janet"
    },
    {
      "name": "Sally"
    },
    {
      "name": "Suki"
    },
    {
      "name": "Mrs. Hammersmith"
    },
    {
      "name": "Mrs. Finnegan"
    },
    {
      "name": "Mr. Prendergast"
    },
    {
      "name": "Mrs. Finnegan"
    }
  ],
  "chat": [
    {
      "hello": "Welcome to my Normal TM Shop. I hope you find something you like!",
      "goodbye": "See you next time."
    },
    {
      "hello": "Hello, welcome to the Normal TM Shop. How may I help you?",
      "goodbye": "Thank you for shopping at the Normal TM Shop. Have a nNormal day."
    },
    {
      "hello": "Hello there! Welcome to my Normal TM Shop. I have only the best Normal TMs for sale.",
      "goodbye": "Thank you for shopping at my store."
    },
    {
      "hello": "Welcome to my Normal TM Shop. NNormal day for shopping, isn't it?",
      "goodbye": "Come back soon, won't you?"
    },
    {
      "hello": "Hello there, welcome to the Normal TM Shop! We have many specials today!",
      "goodbye": "Come see us again, won't you?"
    },
    {
      "hello": "Hey there, welcome to the Normal TM Shop. Looking for anything special?",
      "goodbye": "Okay, see ya next time."
    },
    {
      "hello": "How are you? Welcome to our Normal TM Shop! We've got some great TMs for your Pokémon.",
      "goodbye": "Ciao, my friend. Come back anytime."
    },
    {
      "hello": "Hello, check out our Normal TM Shop! We have some useful Pokémon TMs today.",
      "goodbye": "Come back again soon, okay?"
    },
    {
      "hello": "Hi, looking for the best Normal TM Shop? Well, you just found it!",
      "goodbye": "Leaving so soon? Well, make sure you come back even sooner!"
    },
    {
      "hello": "Hi, welcome to the Normal TM Shop. Would you like any help?",
      "goodbye": "Bye then. Visit us again soon."
    },
    {
      "hello": "Hi, how are you? Welcome to the Normal TM Shop. Just call out if you need any help.",
      "goodbye": "NNormal to see you. Have a great day!"
    },
    {
      "hello": "Hello, may I help you find your Normal TMs? We have some great bargains.",
      "goodbye": "Thank you for your custom. We look forward to serving you again."
    },
    {
      "hello": "Welcome to the Normal TM Shop. Is there anything special you're looking for?",
      "goodbye": "Bye! Come and see us again soon!"
    },
    {
      "hello": "Welcome to our lovely store. I am sure the quality of our goods will please you.",
      "goodbye": "Delighted to have met you. Good day."
    },
    {
      "hello": "Hello, and welcome to the Normal TM Shop. We have an exciting range of luxury goods.",
      "goodbye": "Thank you for shopping at the Normal TM Shop."
    },
    {
      "hello": "Bienvenu! Our Normal TM Shop has fine quality merchandise to offer you.",
      "goodbye": "It was indeed a privilege to do business with you."
    },
    {
      "hello": "Welcome to our fine Normal TM Shop. Enjoy browsing our luxury range.",
      "goodbye": "Good day to you, and thank you for shopping at our store."
    },
    {
      "hello": "Hello, and welcome to the Normal TM Shop. We have an exciting range of luxury goods.",
      "goodbye": "Thank you for shopping at the Normal TM Shop."
    }
  ],
  "items": [
    {
      "name": "Pixelmon_TM_5_Roar",
      "multi": 1.0,
      "rarity": 1.0,
      "variation": false
    },
    {
      "name": "Pixelmon_TM_10_Hidden_Power",
      "multi": 1.0,
      "rarity": 1.0,
      "variation": false
    },
    {
      "name": "Pixelmon_TM_15_Hyper_Beam",
      "multi": 1.0,
      "rarity": 1.0,
      "variation": false
    },
    {
      "name": "Pixelmon_TM_17_Protect",
      "multi": 1.0,
      "rarity": 1.0,
      "variation": false
    },
    {
      "name": "Pixelmon_TM_20_Safeguard",
      "multi": 1.0,
      "rarity": 1.0,
      "variation": false
    },
    {
      "name": "Pixelmon_TM_21_Frustration",
      "multi": 1.0,
      "rarity": 1.0,
      "variation": false
    },
    {
      "name": "Pixelmon_TM_27_Return",
      "multi": 1.0,
      "rarity": 1.0,
      "variation": false
    },
    {
      "name": "Pixelmon_TM_32_Double_Team",
      "multi": 1.0,
      "rarity": 1.0,
      "variation": false
    },
    {
      "name": "Pixelmon_TM_42_Facade",
      "multi": 1.0,
      "rarity": 1.0,
      "variation": false
    },
    {
      "name": "Pixelmon_TM_45_Attract",
      "multi": 1.0,
      "rarity": 1.0,
      "variation": false
    },
    {
      "name": "Pixelmon_TM_48_Round",
      "multi": 1.0,
      "rarity": 1.0,
      "variation": false
    },
    {
      "name": "Pixelmon_TM_49_Echoed_Voice",
      "multi": 1.0,
      "rarity": 1.0,
      "variation": false
    },
    {
      "name": "Pixelmon_TM_54_False_Swipe",
      "multi": 1.0,
      "rarity": 1.0,
      "variation": false
    },
    {
      "name": "Pixelmon_TM_64_Explosion",
      "multi": 1.0,
      "rarity": 1.0,
      "variation": false
    },
    {
      "name": "Pixelmon_TM_67_Retaliate",
      "multi": 1.0,
      "rarity": 1.0,
      "variation": false
    },
    {
      "name": "Pixelmon_TM_68_Giga_Impact",
      "multi": 1.0,
      "rarity": 1.0,
      "variation": false
    },
    {
      "name": "Pixelmon_TM_70_Flash",
      "multi": 1.0,
      "rarity": 1.0,
      "variation": false
    },
    {
      "name": "Pixelmon_TM_75_Swords_Dance",
      "multi": 1.0,
      "rarity": 1.0,
      "variation": false
    },
    {
      "name": "Pixelmon_TM_77_Psych_Up",
      "multi": 1.0,
      "rarity": 1.0,
      "variation": false
    },
    {
      "name": "Pixelmon_TM_83_Work_Up",
      "multi": 1.0,
      "rarity": 1.0,
      "variation": false
    },
    {
      "name": "Pixelmon_TM_87_Swagger",
      "multi": 1.0,
      "rarity": 1.0,
      "variation": false
    },
    {
      "name": "Pixelmon_TM_90_Substitute",
      "multi": 1.0,
      "rarity": 1.0,
      "variation": false
    },
    {
      "name": "Pixelmon_TM_96_Mega_Punch",
      "multi": 1.0,
      "rarity": 1.0,
      "variation": false
    },
    {
      "name": "Pixelmon_TM_97_Razor_Wind",
      "multi": 1.0,
      "rarity": 1.0,
      "variation": false
    },
    {
      "name": "Pixelmon_TM_98_Whirlwind",
      "multi": 1.0,
      "rarity": 1.0,
      "variation": false
    },
    {
      "name": "Pixelmon_TM_99_Mega_Kick",
      "multi": 1.0,
      "rarity": 1.0,
      "variation": false
    },
    {
      "name": "Pixelmon_TM_100_Horn_Drill",
      "multi": 1.0,
      "rarity": 1.0,
      "variation": false
    },
    {
      "name": "Pixelmon_TM_101_Body_Slam",
      "multi": 1.0,
      "rarity": 1.0,
      "variation": false
    },
    {
      "name": "Pixelmon_TM_102_Take_Down",
      "multi": 1.0,
      "rarity": 1.0,
      "variation": false
    },
    {
      "name": "Pixelmon_TM_103_Double-Edge",
      "multi": 1.0,
      "rarity": 1.0,
      "variation": false
    },
    {
      "name": "Pixelmon_TM_106_Pay_Day",
      "multi": 1.0,
      "rarity": 1.0,
      "variation": false
    },
    {
      "name": "Pixelmon_TM_110_Rage",
      "multi": 1.0,
      "rarity": 1.0,
      "variation": false
    },
    {
      "name": "Pixelmon_TM_115_Mimic",
      "multi": 1.0,
      "rarity": 1.0,
      "variation": false
    },
    {
      "name": "Pixelmon_TM_116_Bide",
      "multi": 1.0,
      "rarity": 1.0,
      "variation": false
    },
    {
      "name": "Pixelmon_TM_117_Metronome",
      "multi": 1.0,
      "rarity": 1.0,
      "variation": false
    },
    {
      "name": "Pixelmon_TM_119_Egg_Bomb",
      "multi": 1.0,
      "rarity": 1.0,
      "variation": false
    },
    {
      "name": "Pixelmon_TM_120_Swift",
      "multi": 1.0,
      "rarity": 1.0,
      "variation": false
    },
    {
      "name": "Pixelmon_TM_121_Skull_Bash",
      "multi": 1.0,
      "rarity": 1.0,
      "variation": false
    },
    {
      "name": "Pixelmon_TM_122_Softboiled",
      "multi": 1.0,
      "rarity": 1.0,
      "variation": false
    },
    {
      "name": "Pixelmon_TM_125_Tri_Attack",
      "multi": 1.0,
      "rarity": 1.0,
      "variation": false
    },
    {
      "name": "Pixelmon_TM_127_Headbutt",
      "multi": 1.0,
      "rarity": 1.0,
      "variation": false
    },
    {
      "name": "Pixelmon_TM_131_Sweet_Scent",
      "multi": 1.0,
      "rarity": 1.0,
      "variation": false
    },
    {
      "name": "Pixelmon_TM_132_Snore",
      "multi": 1.0,
      "rarity": 1.0,
      "variation": false
    },
    {
      "name": "Pixelmon_TM_135_Endure",
      "multi": 1.0,
      "rarity": 1.0,
      "variation": false
    },
    {
      "name": "Pixelmon_TM_140_Sleep_Talk",
      "multi": 1.0,
      "rarity": 1.0,
      "variation": false
    },
    {
      "name": "Pixelmon_TM_141_Defense_Curl",
      "multi": 1.0,
      "rarity": 1.0,
      "variation": false
    },
    {
      "name": "Pixelmon_TM_152_Secret_Power",
      "multi": 1.0,
      "rarity": 1.0,
      "variation": false
    },
    {
      "name": "Pixelmon_TM_160_Recycle",
      "multi": 1.0,
      "rarity": 1.0,
      "variation": false
    },
    {
      "name": "Pixelmon_TM_163_Captivate",
      "multi": 1.0,
      "rarity": 1.0,
      "variation": false
    },
    {
      "name": "Pixelmon_TM_165_Natural_Gift",
      "multi": 1.0,
      "rarity": 1.0,
      "variation": false
    }
  ]
}
